# compile vhdl design source files
vhdl xil_defaultlib  \
"../../../../Parking_VHDL.srcs/sources_1/new/EDGEDTCTR.vhd" \
"../../../../Parking_VHDL.srcs/sources_1/new/Entrada_Parking.vhd" \
"../../../../Parking_VHDL.srcs/sources_1/new/Maquina_Ascensor.vhd" \
"../../../../Parking_VHDL.srcs/sources_1/new/SYNCHRNZR.vhd" \
"../../../../Parking_VHDL.srcs/sources_1/new/clk10kHz.vhd" \
"../../../../Parking_VHDL.srcs/sources_1/new/contador_plazas.vhd" \
"../../../../Parking_VHDL.srcs/sources_1/new/decoder.vhd" \
"../../../../Parking_VHDL.srcs/sources_1/new/multiplexor.vhd" \
"../../../../Parking_VHDL.srcs/sources_1/new/parking.vhd" \
"../../../../Parking_VHDL.srcs/sim_1/new/parking_tb.vhd" \

# Do not sort compile order
nosort
